\relax 
\providecommand\hyper@newdestlabel[2]{}
\providecommand{\transparent@use}[1]{}
\providecommand\HyperFirstAtBeginDocument{\AtBeginDocument}
\HyperFirstAtBeginDocument{\ifx\hyper@anchor\@undefined
\global\let\oldcontentsline\contentsline
\gdef\contentsline#1#2#3#4{\oldcontentsline{#1}{#2}{#3}}
\global\let\oldnewlabel\newlabel
\gdef\newlabel#1#2{\newlabelxx{#1}#2}
\gdef\newlabelxx#1#2#3#4#5#6{\oldnewlabel{#1}{{#2}{#3}}}
\AtEndDocument{\ifx\hyper@anchor\@undefined
\let\contentsline\oldcontentsline
\let\newlabel\oldnewlabel
\fi}
\fi}
\global\let\hyper@last\relax 
\gdef\HyperFirstAtBeginDocument#1{#1}
\providecommand\HyField@AuxAddToFields[1]{}
\providecommand\HyField@AuxAddToCoFields[2]{}
\bibstyle{ieeetr}
\bibdata{gonogo}
\@writefile{toc}{\contentsline {section}{\numberline {1}Motivation}{1}{section.1}}
\@writefile{toc}{\contentsline {section}{\numberline {2}Task}{1}{section.2}}
\@writefile{toc}{\contentsline {subsection}{\numberline {2.1}Requirements}{1}{subsection.2.1}}
\@writefile{toc}{\contentsline {subsection}{\numberline {2.2}Experimental Procedure}{1}{subsection.2.2}}
\@writefile{toc}{\contentsline {subsection}{\numberline {2.3}Task Description}{1}{subsection.2.3}}
\@writefile{toc}{\contentsline {section}{\numberline {3}Additional Measures}{1}{section.3}}
\@writefile{toc}{\contentsline {section}{\numberline {4}Data}{2}{section.4}}
\@writefile{toc}{\contentsline {subsection}{\numberline {4.1}Participants}{2}{subsection.4.1}}
\@writefile{toc}{\contentsline {subsection}{\numberline {4.2}Exclusion Criteria}{2}{subsection.4.2}}
\@writefile{toc}{\contentsline {subsection}{\numberline {4.3}Additional Notes}{2}{subsection.4.3}}
\@writefile{toc}{\contentsline {subsection}{\numberline {4.4}Data Storage}{2}{subsection.4.4}}
\@writefile{toc}{\contentsline {section}{\numberline {5}Data Analysis}{2}{section.5}}
\@writefile{toc}{\contentsline {subsection}{\numberline {5.1}Behavior}{2}{subsection.5.1}}
\@writefile{toc}{\contentsline {subsubsection}{\numberline {5.1.1}Analysis Plan}{2}{subsubsection.5.1.1}}
\@writefile{toc}{\contentsline {subsection}{\numberline {5.2}Computational Modeling}{2}{subsection.5.2}}
\@writefile{toc}{\contentsline {subsubsection}{\numberline {5.2.1}Analysis Plan}{2}{subsubsection.5.2.1}}
\@writefile{toc}{\contentsline {subsection}{\numberline {5.3}EEG}{2}{subsection.5.3}}
\@writefile{toc}{\contentsline {subsubsection}{\numberline {5.3.1}Analysis Plan}{2}{subsubsection.5.3.1}}
\@writefile{toc}{\contentsline {subsection}{\numberline {5.4}fMRI}{2}{subsection.5.4}}
\@writefile{toc}{\contentsline {subsubsection}{\numberline {5.4.1}Analysis Plan}{2}{subsubsection.5.4.1}}
\@writefile{toc}{\contentsline {section}{\numberline {6}Appendix}{2}{section.6}}
\@writefile{toc}{\contentsline {subsection}{\numberline {6.1}Questionnaires}{2}{subsection.6.1}}
