\relax 
\providecommand\hyper@newdestlabel[2]{}
\providecommand{\transparent@use}[1]{}
\providecommand\HyperFirstAtBeginDocument{\AtBeginDocument}
\HyperFirstAtBeginDocument{\ifx\hyper@anchor\@undefined
\global\let\oldcontentsline\contentsline
\gdef\contentsline#1#2#3#4{\oldcontentsline{#1}{#2}{#3}}
\global\let\oldnewlabel\newlabel
\gdef\newlabel#1#2{\newlabelxx{#1}#2}
\gdef\newlabelxx#1#2#3#4#5#6{\oldnewlabel{#1}{{#2}{#3}}}
\AtEndDocument{\ifx\hyper@anchor\@undefined
\let\contentsline\oldcontentsline
\let\newlabel\oldnewlabel
\fi}
\fi}
\global\let\hyper@last\relax 
\gdef\HyperFirstAtBeginDocument#1{#1}
\providecommand\HyField@AuxAddToFields[1]{}
\providecommand\HyField@AuxAddToCoFields[2]{}
\@writefile{toc}{\contentsline {section}{\numberline {1}Planning a Project}{1}{section.1}}
\@writefile{toc}{\contentsline {section}{\numberline {2}Data}{1}{section.2}}
\@writefile{toc}{\contentsline {section}{\numberline {3}Data Analysis}{1}{section.3}}
\@writefile{toc}{\contentsline {subsection}{\numberline {3.1}Documentation}{2}{subsection.3.1}}
\@writefile{toc}{\contentsline {subsection}{\numberline {3.2}exploratoryFigures}{2}{subsection.3.2}}
\@writefile{toc}{\contentsline {subsection}{\numberline {3.3}finalFigures}{2}{subsection.3.3}}
\@writefile{toc}{\contentsline {subsection}{\numberline {3.4}finalCode}{2}{subsection.3.4}}
\@writefile{toc}{\contentsline {subsection}{\numberline {3.5}rawCode}{2}{subsection.3.5}}
\@writefile{toc}{\contentsline {subsection}{\numberline {3.6}processed Data}{2}{subsection.3.6}}
\@writefile{toc}{\contentsline {subsection}{\numberline {3.7}rawData}{2}{subsection.3.7}}
\@writefile{toc}{\contentsline {subsection}{\numberline {3.8}Reproducable Code}{2}{subsection.3.8}}
\@writefile{toc}{\contentsline {section}{\numberline {4}Ethics}{2}{section.4}}
\@writefile{toc}{\contentsline {section}{\numberline {5}Task}{2}{section.5}}
\@writefile{toc}{\contentsline {section}{\numberline {6}Paper}{3}{section.6}}
