\BOOKMARK [1][-]{section.1}{Planning a Project}{}% 1
\BOOKMARK [1][-]{section.2}{Data}{}% 2
\BOOKMARK [1][-]{section.3}{Data Analysis}{}% 3
\BOOKMARK [2][-]{subsection.3.1}{Documentation}{section.3}% 4
\BOOKMARK [2][-]{subsection.3.2}{exploratoryFigures}{section.3}% 5
\BOOKMARK [2][-]{subsection.3.3}{finalFigures}{section.3}% 6
\BOOKMARK [2][-]{subsection.3.4}{finalCode}{section.3}% 7
\BOOKMARK [2][-]{subsection.3.5}{rawCode}{section.3}% 8
\BOOKMARK [2][-]{subsection.3.6}{processed Data}{section.3}% 9
\BOOKMARK [2][-]{subsection.3.7}{rawData}{section.3}% 10
\BOOKMARK [2][-]{subsection.3.8}{Reproducable Code}{section.3}% 11
\BOOKMARK [1][-]{section.4}{Ethics}{}% 12
\BOOKMARK [1][-]{section.5}{Task}{}% 13
\BOOKMARK [1][-]{section.6}{Paper}{}% 14
